{
    "name": "Orion.DevConsole",
    "references": [
        "GUID:67a7fb7e967969a48b5009e453786256",
        "GUID:75469ad4d38634e559750d17036d5f7c"
    ],
    "includePlatforms": [],
    "excludePlatforms": [],
    "allowUnsafeCode": false,
    "overrideReferences": false,
    "precompiledReferences": [],
    "autoReferenced": true,
    "defineConstraints": [],
    "versionDefines": [
        {
            "name": "com.unity.inputsystem",
            "expression": "",
            "define": "UNITY_INPUT_SYSTEM"
        }
    ],
    "noEngineReferences": false
}