%YAML 1.1
%TAG !u! tag:unity3d.com,2011:
--- !u!687078895 &4343727234628468602
SpriteAtlas:
  m_ObjectHideFlags: 0
  m_CorrespondingSourceObject: {fileID: 0}
  m_PrefabInstance: {fileID: 0}
  m_PrefabAsset: {fileID: 0}
  m_Name: UI
  m_EditorData:
    serializedVersion: 2
    textureSettings:
      serializedVersion: 2
      anisoLevel: 1
      compressionQuality: 50
      maxTextureSize: 2048
      textureCompression: 0
      filterMode: 1
      generateMipMaps: 0
      readable: 0
      crunchedCompression: 0
      sRGB: 1
    platformSettings:
    - serializedVersion: 3
      m_BuildTarget: DefaultTexturePlatform
      m_MaxTextureSize: 2048
      m_ResizeAlgorithm: 0
      m_TextureFormat: -1
      m_TextureCompression: 0
      m_CompressionQuality: 50
      m_CrunchedCompression: 0
      m_AllowsAlphaSplitting: 0
      m_Overridden: 0
      m_AndroidETC2FallbackOverride: 0
      m_ForceMaximumCompressionQuality_BC6H_BC7: 1
    packingSettings:
      serializedVersion: 2
      padding: 2
      blockOffset: 1
      allowAlphaSplitting: 0
      enableRotation: 1
      enableTightPacking: 0
    secondaryTextureSettings: {}
    variantMultiplier: 1
    packables:
    - {fileID: 102900000, guid: 35a41071f523db14190e1d216e9b796b, type: 3}
    bindAsDefault: 1
    isAtlasV2: 0
    cachedData: {fileID: 0}
  m_MasterAtlas: {fileID: 0}
  m_PackedSprites:
  - {fileID: 21300000, guid: 0d242a70a29f1b1448b457bd466e2a10, type: 3}
  - {fileID: 21300000, guid: fb87d5b0e7d349940bfc915be99780d8, type: 3}
  - {fileID: 21300000, guid: cda55b01ed99b7240831a009bbdda881, type: 3}
  - {fileID: 21300000, guid: 251fe941fe65eee43bea33b4f61ea00c, type: 3}
  - {fileID: 21300000, guid: d5165c63ddc373140a950f0a1ab618ac, type: 3}
  - {fileID: 21300000, guid: 4949372426a5e094e8faa89c05a43d01, type: 3}
  - {fileID: 21300000, guid: c587b56558ea4d749b9232da40277cc1, type: 3}
  - {fileID: 21300000, guid: 6636ee56b9548e34da79bdec90aba858, type: 3}
  - {fileID: 21300000, guid: 2a3b0408008aeb64693134c464823772, type: 3}
  - {fileID: 21300000, guid: 9df3645842b091a4790a7dbcb9eef020, type: 3}
  - {fileID: 21300000, guid: 5f685978fac901b489d43ec0df604b86, type: 3}
  - {fileID: 21300000, guid: 6739c039b6b9fa543b2a8a54fc03ca1d, type: 3}
  - {fileID: 21300000, guid: 16c6eb49dba7b6c4cac46eddca29f5ae, type: 3}
  - {fileID: 21300000, guid: e8bf2a5985c8acb41aac2a58fc0be26a, type: 3}
  - {fileID: 21300000, guid: ac4ee49999ef476439c9d8623200404e, type: 3}
  - {fileID: 21300000, guid: 8ee9c0c90fad18e4aa46fe6ecb69737e, type: 3}
  - {fileID: 21300000, guid: 8a294e7ac17d15147b777a905a930113, type: 3}
  - {fileID: 21300000, guid: 78acceec5727def4ba76b640c1c2152b, type: 3}
  - {fileID: 21300000, guid: e4076c6dd47e37c458dc4effbc028b29, type: 3}
  - {fileID: 21300000, guid: 77d4e0bdd307638459cdf4dba11553e8, type: 3}
  - {fileID: 21300000, guid: bccc02aee6b8bad4988c23f06880a9b5, type: 3}
  m_PackedSpriteNamesToIndex:
  - toggle-knob
  - toggle-bar
  - icon-trash
  - button-icon
  - open-console-button
  - slider-knob
  - expand-button
  - white
  - slider-bar
  - icon-autoscroll
  - window
  - search-icon
  - icon-error
  - check-symbol
  - icon-log
  - flat-panel
  - icon-info
  - console-header
  - fps-icon
  - close-cross
  - icon-warning
  m_RenderDataMap: {}
  m_Tag: UI
  m_IsVariant: 0
